Scoring System for Contact Tracing Prioritisation • ctscore
…
## use the path to your own file in practice 
path_to_file <- system.file("toy_ctdata.xlsx", package = "ctscore")

## read the data in
raw_data <- rio::import(path_to_file) %>% 
  tibble()

raw_data
#> # A tibble: 46 × 7
#>    contact_id  date type      location   last_visit infected onset
#>         <dbl> <dbl> <chr>     <chr>           <dbl> <lgl>    <dbl>
#>  1          1     5 household new_city           13 FALSE       NA
#>  2          2    13 funeral   new_city           27 FALSE       NA
#>  3          3     6 household local_town         NA FALSE       NA
#>  4          4     5 household new_city           NA FALSE       NA
#>  5          5    17 funeral   hotspot            22 TRUE        23
#>  6          5    18 household hotspot            22 TRUE        23
#>  7          5    21 household hotspot            22 TRUE        23
#>  8          6    15 funeral   local_town         NA FALSE       NA
#>  9          7     9 household local_town         NA FALSE       NA
#> 10          8    14 household hotspot            18 TRUE        24
#> # ℹ 36 more rows
…
